(module SHIELD_ROOM_PAD (layer F.Cu) (tedit 590746B3)
  (fp_text reference REF** (at 0.1 2.1) (layer F.SilkS) hide
    (effects (font (size 1 1) (thickness 0.15)))
  )
  (fp_text value SHIELD_ROOM_PAD (at 0.05 -1.8) (layer F.Fab) hide
    (effects (font (size 1 1) (thickness 0.15)))
  )
  (pad 1 smd rect (at 0 0) (size 4 2) (layers F.Cu F.Mask))
)
