EESchema Schematic File Version 2
LIBS:power
LIBS:device
LIBS:transistors
LIBS:conn
LIBS:linear
LIBS:regul
LIBS:74xx
LIBS:cmos4000
LIBS:adc-dac
LIBS:memory
LIBS:xilinx
LIBS:microcontrollers
LIBS:dsp
LIBS:microchip
LIBS:analog_switches
LIBS:motorola
LIBS:texas
LIBS:intel
LIBS:audio
LIBS:interface
LIBS:digital-audio
LIBS:philips
LIBS:display
LIBS:cypress
LIBS:siliconi
LIBS:opto
LIBS:atmel
LIBS:contrib
LIBS:valves
LIBS:detectors
LIBS:opamps
LIBS:rfamps
LIBS:rfconn
LIBS:rfdiodes
LIBS:rftrans
LIBS:cfoa_buffer-cache
EELAYER 25 0
EELAYER END
$Descr A4 11693 8268
encoding utf-8
Sheet 1 1
Title ""
Date ""
Rev ""
Comp ""
Comment1 ""
Comment2 ""
Comment3 ""
Comment4 ""
$EndDescr
$Comp
L AD8000YRDZ U1
U 1 1 59013E8A
P 5000 3850
F 0 "U1" H 4950 4150 50  0000 L CNN
F 1 "AD8000YRDZ" H 4750 3550 50  0000 L CNN
F 2 "Housings_SOIC:SOIC-8-1EP_3.9x4.9mm_Pitch1.27mm" H 5350 4250 50  0001 C CNN
F 3 "" H 5350 3600 50  0000 C CNN
	1    5000 3850
	1    0    0    -1  
$EndComp
$Comp
L R RF1
U 1 1 59013FB2
P 4350 3700
F 0 "RF1" V 4430 3700 50  0000 C CNN
F 1 "432" V 4350 3700 50  0000 C CNN
F 2 "Resistors_SMD:R_0603_HandSoldering" V 4280 3700 50  0001 C CNN
F 3 "" H 4350 3700 50  0000 C CNN
	1    4350 3700
	0    1    1    0   
$EndComp
$Comp
L R RG1
U 1 1 59013FED
P 3900 3550
F 0 "RG1" V 3980 3550 50  0000 C CNN
F 1 "R" V 3900 3550 50  0000 C CNN
F 2 "Resistors_SMD:R_0603_HandSoldering" V 3830 3550 50  0001 C CNN
F 3 "" H 3900 3550 50  0000 C CNN
	1    3900 3550
	0    1    1    0   
$EndComp
$Comp
L SMA P1
U 1 1 5901404A
P 3850 3900
F 0 "P1" H 3860 4020 50  0000 C CNN
F 1 "SMA" V 3960 3840 50  0000 C CNN
F 2 "footprints:CON-SMA-EDGE" H 3850 3900 50  0001 C CNN
F 3 "" H 3850 3900 50  0000 C CNN
	1    3850 3900
	-1   0    0    -1  
$EndComp
$Comp
L SMA P2
U 1 1 59014095
P 6100 3900
F 0 "P2" H 6110 4020 50  0000 C CNN
F 1 "SMA" V 6210 3840 50  0000 C CNN
F 2 "footprints:CON-SMA-EDGE" H 6100 3900 50  0001 C CNN
F 3 "" H 6100 3900 50  0000 C CNN
	1    6100 3900
	1    0    0    -1  
$EndComp
$Comp
L C C1
U 1 1 590140EA
P 5350 5900
F 0 "C1" H 5375 6000 50  0000 L CNN
F 1 "100p" H 5375 5800 50  0000 L CNN
F 2 "Capacitors_SMD:C_0603_HandSoldering" H 5388 5750 50  0001 C CNN
F 3 "" H 5350 5900 50  0000 C CNN
	1    5350 5900
	1    0    0    -1  
$EndComp
$Comp
L C C2
U 1 1 590141DD
P 5350 6300
F 0 "C2" H 5375 6400 50  0000 L CNN
F 1 "100p" H 5375 6200 50  0000 L CNN
F 2 "Capacitors_SMD:C_0603_HandSoldering" H 5388 6150 50  0001 C CNN
F 3 "" H 5350 6300 50  0000 C CNN
	1    5350 6300
	1    0    0    -1  
$EndComp
$Comp
L C C3
U 1 1 59014226
P 5750 5900
F 0 "C3" H 5775 6000 50  0000 L CNN
F 1 "0.1u" H 5775 5800 50  0000 L CNN
F 2 "Capacitors_SMD:C_0603_HandSoldering" H 5788 5750 50  0001 C CNN
F 3 "" H 5750 5900 50  0000 C CNN
	1    5750 5900
	1    0    0    -1  
$EndComp
$Comp
L C C4
U 1 1 59014279
P 5750 6300
F 0 "C4" H 5775 6400 50  0000 L CNN
F 1 "0.1u" H 5775 6200 50  0000 L CNN
F 2 "Capacitors_SMD:C_0603_HandSoldering" H 5788 6150 50  0001 C CNN
F 3 "" H 5750 6300 50  0000 C CNN
	1    5750 6300
	1    0    0    -1  
$EndComp
$Comp
L CP1 C5
U 1 1 590142DC
P 6100 5900
F 0 "C5" H 6125 6000 50  0000 L CNN
F 1 "22u" H 6125 5800 50  0000 L CNN
F 2 "Capacitors_Tantalum_SMD:CP_Tantalum_Case-S_EIA-3216-12_Hand" H 6100 5900 50  0001 C CNN
F 3 "" H 6100 5900 50  0000 C CNN
	1    6100 5900
	1    0    0    -1  
$EndComp
$Comp
L CP1 C6
U 1 1 59014353
P 6100 6300
F 0 "C6" H 6125 6400 50  0000 L CNN
F 1 "22u" H 6125 6200 50  0000 L CNN
F 2 "Capacitors_Tantalum_SMD:CP_Tantalum_Case-S_EIA-3216-12_Hand" H 6100 6300 50  0001 C CNN
F 3 "" H 6100 6300 50  0000 C CNN
	1    6100 6300
	1    0    0    -1  
$EndComp
$Comp
L PWR_FLAG #FLG01
U 1 1 59014387
P 4850 5550
F 0 "#FLG01" H 4850 5645 50  0001 C CNN
F 1 "PWR_FLAG" H 4850 5730 50  0000 C CNN
F 2 "" H 4850 5550 50  0000 C CNN
F 3 "" H 4850 5550 50  0000 C CNN
	1    4850 5550
	1    0    0    -1  
$EndComp
$Comp
L PWR_FLAG #FLG02
U 1 1 590143DB
P 4850 6050
F 0 "#FLG02" H 4850 6145 50  0001 C CNN
F 1 "PWR_FLAG" H 4850 6230 50  0000 C CNN
F 2 "" H 4850 6050 50  0000 C CNN
F 3 "" H 4850 6050 50  0000 C CNN
	1    4850 6050
	1    0    0    -1  
$EndComp
$Comp
L PWR_FLAG #FLG03
U 1 1 59014407
P 4850 6650
F 0 "#FLG03" H 4850 6745 50  0001 C CNN
F 1 "PWR_FLAG" H 4850 6830 50  0000 C CNN
F 2 "" H 4850 6650 50  0000 C CNN
F 3 "" H 4850 6650 50  0000 C CNN
	1    4850 6650
	-1   0    0    1   
$EndComp
$Comp
L VCC #PWR04
U 1 1 590144F4
P 5000 5650
F 0 "#PWR04" H 5000 5500 50  0001 C CNN
F 1 "VCC" H 5000 5800 50  0000 C CNN
F 2 "" H 5000 5650 50  0000 C CNN
F 3 "" H 5000 5650 50  0000 C CNN
	1    5000 5650
	1    0    0    -1  
$EndComp
$Comp
L VEE #PWR05
U 1 1 5901451E
P 5000 6550
F 0 "#PWR05" H 5000 6400 50  0001 C CNN
F 1 "VEE" H 5000 6700 50  0000 C CNN
F 2 "" H 5000 6550 50  0000 C CNN
F 3 "" H 5000 6550 50  0000 C CNN
	1    5000 6550
	-1   0    0    1   
$EndComp
$Comp
L GND #PWR06
U 1 1 59014548
P 4850 6150
F 0 "#PWR06" H 4850 5900 50  0001 C CNN
F 1 "GND" H 4850 6000 50  0000 C CNN
F 2 "" H 4850 6150 50  0000 C CNN
F 3 "" H 4850 6150 50  0000 C CNN
	1    4850 6150
	1    0    0    -1  
$EndComp
Wire Wire Line
	4850 6050 4850 6150
Wire Wire Line
	4200 6100 6100 6100
Wire Wire Line
	4200 6500 6100 6500
Wire Wire Line
	6100 6500 6100 6450
Wire Wire Line
	5000 5700 5000 5650
Wire Wire Line
	4200 5700 6100 5700
Wire Wire Line
	6100 5700 6100 5750
Wire Wire Line
	5750 5750 5750 5700
Connection ~ 5750 5700
Wire Wire Line
	5350 5750 5350 5700
Connection ~ 5350 5700
Wire Wire Line
	5350 6450 5350 6500
Connection ~ 5350 6500
Wire Wire Line
	5750 6450 5750 6500
Connection ~ 5750 6500
Wire Wire Line
	6100 6050 6100 6150
Connection ~ 6100 6100
Wire Wire Line
	5750 6050 5750 6150
Connection ~ 5750 6100
Wire Wire Line
	5350 6050 5350 6150
Connection ~ 5350 6100
Wire Wire Line
	4850 5550 4850 5700
Connection ~ 5000 5700
Wire Wire Line
	4850 6500 4850 6650
Connection ~ 4850 6100
Wire Wire Line
	5000 6550 5000 6500
Connection ~ 5000 6500
$Comp
L CONN_01X03 PCON1
U 1 1 59014BFA
P 4000 6100
F 0 "PCON1" H 4000 6300 50  0000 C CNN
F 1 "POWER_IN" V 4100 6100 50  0000 C CNN
F 2 "Connectors:AK300-3" H 4000 6100 50  0001 C CNN
F 3 "" H 4000 6100 50  0000 C CNN
	1    4000 6100
	-1   0    0    1   
$EndComp
Wire Wire Line
	4200 6000 4200 5700
Connection ~ 4850 5700
Wire Wire Line
	4200 6200 4200 6500
Connection ~ 4850 6500
$Comp
L R_Small R1
U 1 1 5901549E
P 5600 3700
F 0 "R1" V 5700 3650 50  0000 L CNN
F 1 "22k" V 5600 3650 50  0000 L CNN
F 2 "Resistors_SMD:R_0603_HandSoldering" H 5600 3700 50  0001 C CNN
F 3 "" H 5600 3700 50  0000 C CNN
	1    5600 3700
	0    -1   -1   0   
$EndComp
Wire Wire Line
	5500 3700 5450 3700
$Comp
L VCC #PWR07
U 1 1 590156D5
P 5800 3700
F 0 "#PWR07" H 5800 3550 50  0001 C CNN
F 1 "VCC" H 5800 3850 50  0000 C CNN
F 2 "" H 5800 3700 50  0000 C CNN
F 3 "" H 5800 3700 50  0000 C CNN
	1    5800 3700
	1    0    0    -1  
$EndComp
Wire Wire Line
	5700 3700 5800 3700
Wire Wire Line
	5750 3700 5750 3800
Wire Wire Line
	5750 3800 5450 3800
Connection ~ 5750 3700
Wire Wire Line
	4500 3700 4550 3700
Wire Wire Line
	4150 3550 4150 3800
Wire Wire Line
	4150 3800 4550 3800
Connection ~ 4150 3700
$Comp
L GND #PWR08
U 1 1 59015E58
P 3650 3550
F 0 "#PWR08" H 3650 3300 50  0001 C CNN
F 1 "GND" H 3650 3400 50  0000 C CNN
F 2 "" H 3650 3550 50  0000 C CNN
F 3 "" H 3650 3550 50  0000 C CNN
	1    3650 3550
	1    0    0    -1  
$EndComp
Wire Wire Line
	3650 3550 3750 3550
$Comp
L VEE #PWR09
U 1 1 590160F8
P 4500 4050
F 0 "#PWR09" H 4500 3900 50  0001 C CNN
F 1 "VEE" H 4500 4200 50  0000 C CNN
F 2 "" H 4500 4050 50  0000 C CNN
F 3 "" H 4500 4050 50  0000 C CNN
	1    4500 4050
	-1   0    0    1   
$EndComp
Wire Wire Line
	4500 4050 4500 4000
Wire Wire Line
	4500 4000 4550 4000
$Comp
L R RO1
U 1 1 590162EA
P 5700 3900
F 0 "RO1" V 5780 3900 50  0000 C CNN
F 1 "432" V 5700 3900 50  0000 C CNN
F 2 "Resistors_SMD:R_0603_HandSoldering" V 5630 3900 50  0001 C CNN
F 3 "" H 5700 3900 50  0000 C CNN
	1    5700 3900
	0    1    1    0   
$EndComp
$Comp
L GND #PWR010
U 1 1 5901652C
P 4250 4300
F 0 "#PWR010" H 4250 4050 50  0001 C CNN
F 1 "GND" H 4250 4150 50  0000 C CNN
F 2 "" H 4250 4300 50  0000 C CNN
F 3 "" H 4250 4300 50  0000 C CNN
	1    4250 4300
	1    0    0    -1  
$EndComp
Wire Wire Line
	4250 4300 4250 4250
Wire Wire Line
	4050 3550 4150 3550
$Comp
L R RS1
U 1 1 59016826
P 4250 4100
F 0 "RS1" V 4330 4100 50  0000 C CNN
F 1 "50" V 4250 4100 50  0000 C CNN
F 2 "Resistors_SMD:R_0603_HandSoldering" V 4180 4100 50  0001 C CNN
F 3 "" H 4250 4100 50  0000 C CNN
	1    4250 4100
	-1   0    0    1   
$EndComp
Wire Wire Line
	4250 3950 4250 3900
Wire Wire Line
	4000 3900 4550 3900
Connection ~ 4250 3900
$Comp
L GND #PWR011
U 1 1 590169C1
P 3850 4150
F 0 "#PWR011" H 3850 3900 50  0001 C CNN
F 1 "GND" H 3850 4000 50  0000 C CNN
F 2 "" H 3850 4150 50  0000 C CNN
F 3 "" H 3850 4150 50  0000 C CNN
	1    3850 4150
	1    0    0    -1  
$EndComp
Wire Wire Line
	3850 4150 3850 4100
Wire Wire Line
	5950 3900 5850 3900
Wire Wire Line
	5550 3900 5450 3900
$Comp
L GND #PWR012
U 1 1 59016E94
P 6100 4150
F 0 "#PWR012" H 6100 3900 50  0001 C CNN
F 1 "GND" H 6100 4000 50  0000 C CNN
F 2 "" H 6100 4150 50  0000 C CNN
F 3 "" H 6100 4150 50  0000 C CNN
	1    6100 4150
	1    0    0    -1  
$EndComp
Wire Wire Line
	6100 4150 6100 4100
Text Notes 3250 3400 0    60   ~ 0
Don't connect RG for unity gain.\n
Wire Wire Line
	4200 3700 4150 3700
Text Label 4050 3900 0    60   ~ 0
RF_IN
Text Label 5950 3700 0    60   ~ 0
RF_OUT
Wire Wire Line
	5950 3700 5950 3900
$EndSCHEMATC
