<Qucs Schematic 0.0.19>
<Properties>
  <View=0,-300,800,1279,0.564474,0,60>
  <Grid=10,10,1>
  <DataSet=simple_model.dat>
  <DataDisplay=simple_model.dpl>
  <OpenDisplay=1>
  <Script=simple_model.m>
  <RunScript=0>
  <showFrame=0>
  <FrameText0=Title>
  <FrameText1=Drawn By:>
  <FrameText2=Date:>
  <FrameText3=Revision:>
</Properties>
<Symbol>
</Symbol>
<Components>
  <R R1 1 520 360 15 -26 0 1 "50 Ohm" 1 "26.85" 0 "0.0" 0 "0.0" 0 "26.85" 0 "european" 0>
  <GND * 1 520 420 0 0 0 0>
  <VProbe Pr1 1 530 210 28 -31 0 0>
  <GND * 1 540 250 0 0 0 0>
  <COAX Line1 1 450 310 -26 16 0 0 "2.29" 1 "0.022e-6" 0 "1" 0 "2.95 mm" 0 "0.9 mm" 0 "50 mm" 1 "4e-4" 0 "26.85" 0>
  <GND * 1 120 430 0 0 0 0>
  <GND * 1 380 420 0 0 0 0>
  <R R2 1 220 370 15 -26 0 1 "50 Ohm" 1 "26.85" 0 "0.0" 0 "0.0" 0 "26.85" 0 "european" 0>
  <IProbe Pr2 1 170 310 -26 16 0 0>
  <C C2 1 380 360 17 -26 0 1 "20 pF" 1 "" 0 "neutral" 0>
  <.AC AC1 1 250 510 0 41 0 0 "log" 1 "1 MHz" 1 "500 MHz" 1 "100" 1 "no" 0>
  <Vac V1 1 120 370 18 -26 0 1 "50 uV" 1 "1 GHz" 0 "0" 0 "0" 0>
  <IProbe Pr3 1 340 310 -26 16 0 0>
  <Eqn Eqn1 1 570 550 -28 15 0 0 "TF=Pr1.v/Pr2.i" 1 "yes" 0>
  <C C1 1 280 310 -26 17 0 0 "0.6667 pF" 1 "" 0 "neutral" 0>
</Components>
<Wires>
  <520 390 520 420 "" 0 0 0 "">
  <380 310 380 330 "" 0 0 0 "">
  <520 230 520 310 "" 0 0 0 "">
  <540 230 540 250 "" 0 0 0 "">
  <380 310 420 310 "" 0 0 0 "">
  <520 310 520 330 "" 0 0 0 "">
  <480 310 520 310 "" 0 0 0 "">
  <120 400 120 420 "" 0 0 0 "">
  <120 420 120 430 "" 0 0 0 "">
  <380 390 380 420 "" 0 0 0 "">
  <220 310 220 340 "" 0 0 0 "">
  <220 400 220 420 "" 0 0 0 "">
  <120 420 220 420 "" 0 0 0 "">
  <120 310 120 340 "" 0 0 0 "">
  <200 310 220 310 "" 0 0 0 "">
  <120 310 140 310 "" 0 0 0 "">
  <220 310 250 310 "" 0 0 0 "">
  <370 310 380 310 "" 0 0 0 "">
</Wires>
<Diagrams>
  <Rect 70 1208 626 518 3 #c0c0c0 1 00 0 0 5e+07 5e+08 1 -0.2 0.2 1.69263 1 -1 0.2 1 315 0 225 "" "" "">
	<"TF" #0000ff 0 3 0 0 0>
  </Rect>
</Diagrams>
<Paintings>
</Paintings>
