<Qucs Dataset 0.0.19>
<indep frequency 201>
  +1.00000000000000000000e+006
  +1.03156084684684174135e+006
  +1.06411778074737358838e+006
  +1.09770223905254271813e+006
  +1.13234665130271529779e+006
  +1.16808447054201457649e+006
  +1.20495020562096545473e+006
  +1.24297945451863948256e+006
  +1.28220893871647329070e+006
  +1.32267653865695535205e+006
  +1.36442133032141858712e+006
  +1.40748362296225712635e+006
  +1.45190499802600708790e+006
  +1.49772834930487000383e+006
  +1.54499792435545427725e+006
  +1.59375936722472542897e+006
  +1.64405976252442458645e+006
  +1.69594768089651316404e+006
  +1.74947322591354465112e+006
  +1.80468808245925256051e+006
  +1.86164556663606967777e+006
  +1.92040067724777292460e+006
  +1.98101014890696108341e+006
  +2.04353250681865308434e+006
  +2.10802812329289969057e+006
  +2.17455927604098245502e+006
  +2.24319020831149118021e+006
  +2.31398719092434505001e+006
  +2.38701858626266242936e+006
  +2.46235491428426327184e+006
  +2.54006892061655735597e+006
  +2.62023564680055947974e+006
  +2.70293250275186728686e+006
  +2.78823934150857012719e+006
  +2.87623853633826179430e+006
  +2.96701506027861824259e+006
  +3.06065656818834459409e+006
  +3.15725348138771764934e+006
  +3.25689907497045397758e+006
  +3.35968956787121715024e+006
  +3.46572421577573241666e+006
  +3.57510540696322266012e+006
  +3.68793876117370510474e+006
  +3.80433323159563960508e+006
  +3.92440121007238049060e+006
  +4.04825863562903599814e+006
  +4.17602510642452863976e+006
  +4.30782399523695930839e+006
  +4.44378256859378516674e+006
  +4.58403210966183803976e+006
  +4.72870804501588083804e+006
  +4.87795007540805637836e+006
  +5.03190231066455040127e+006
  +5.19071340883970353752e+006
  +5.35453671976194158196e+006
  +5.52353043311014026403e+006
  +5.69785773116340022534e+006
  +5.87768694637174159288e+006
  +6.06319172389986086637e+006
  +6.25455118930090498179e+006
  +6.45195012148216273636e+006
  +6.65557913112972304225e+006
  +6.86563484476434532553e+006
  +7.08232009460629522800e+006
  +7.30584411443247459829e+006
  +7.53642274161497969180e+006
  +7.77427862553614471108e+006
  +8.01964144258136861026e+006
  +8.27274811791726481169e+006
  +8.53384305426934920251e+006
  +8.80317836792013049126e+006
  +9.08101413215548731387e+006
  +9.36761862839445471764e+006
  +9.66326860524483583868e+006
  +9.96824954573486186564e+006
  +1.02828559429789017886e+007
  +1.06073915845433976501e+007
  +1.09421698457876499742e+007
  +1.12875139924626871943e+007
  +1.16437574928603880107e+007
  +1.20112443398143183440e+007
  +1.23903293828631974757e+007
  +1.27813786708976682276e+007
  +1.31847698056213576347e+007
  +1.36008923061674404889e+007
  +1.40301479852227754891e+007
  +1.44729513370229210705e+007
  +1.49297299375924989581e+007
  +1.54009248576175626367e+007
  +1.58869910883485525846e+007
  +1.63883979809450656176e+007
  +1.69056296996867582202e+007
  +1.74391856894879974425e+007
  +1.79895811581675671041e+007
  +1.85573475739393197000e+007
  +1.91430331786040365696e+007
  +1.97472035169379748404e+007
  +2.03704419827894642949e+007
  +2.10133503824107646942e+007
  +2.16765495155690498650e+007
  +2.23606797749979123473e+007
  +2.30664017647679001093e+007
  +2.37943969381734579802e+007
  +2.45453682557521164417e+007
  +2.53200408640712462366e+007
  +2.61191627959379702806e+007
  +2.69435056927083022892e+007
  +2.77938655493928864598e+007
  +2.86710634832789823413e+007
  +2.95759465268108360469e+007
  +3.05093884454938881099e+007
  +3.14722905816129297018e+007
  +3.24655827245785258710e+007
  +3.34902240087424144149e+007
  +3.45472038395487666130e+007
  +3.56375428489153981209e+007
  +3.67622938807677701116e+007
  +3.79225430076772794127e+007
  +3.91194105795853659511e+007
  +4.03540523056263700128e+007
  +4.16276603700937032700e+007
  +4.29414645836265757680e+007
  +4.42967335707294866443e+007
  +4.56947759947706535459e+007
  +4.71369418216423392296e+007
  +4.86246236233036965132e+007
  +5.01592579224641248584e+007
  +5.17423265797062367201e+007
  +5.33753582243876233697e+007
  +5.50599297307028546929e+007
  +5.67976677403314560652e+007
  +5.85902502331418246031e+007
  +6.04394081474681645632e+007
  +6.23469270515241846442e+007
  +6.43146488675685673952e+007
  +6.63444736504863202572e+007
  +6.84383614225036799908e+007
  +7.05983340658080577850e+007
  +7.28264772749012261629e+007
  +7.51249425705693960190e+007
  +7.74959493774169534445e+007
  +7.99417871669682264328e+007
  +8.24648176684076786041e+007
  +8.50674771490930467844e+007
  +8.77522787670428156853e+007
  +9.05218149976708292961e+007
  +9.33787601371104866266e+007
  +9.63258728845458328724e+007
  +9.93659990060432702303e+007
  +1.02502074082456454635e+008
  +1.05737126344056516886e+008
  +1.09074279594626471400e+008
  +1.12516756227842107415e+008
  +1.16067880338852509856e+008
  +1.19731080934064507484e+008
  +1.23509895242231369019e+008
  +1.27407972130040928721e+008
  +1.31429075625503852963e+008
  +1.35577088552542418242e+008
  +1.39856016280289828777e+008
  +1.44269990590721517801e+008
  +1.48823273668350607157e+008
  +1.53520262215843081474e+008
  +1.58365491699524313211e+008
  +1.63363640728877842426e+008
  +1.68519535574264317751e+008
  +1.73838154827224642038e+008
  +1.79324634207864284515e+008
  +1.84984271523964643478e+008
  +1.90822531786607146263e+008
  +1.96845052487250745296e+008
  +2.03057649041359454393e+008
  +2.09466320403833568096e+008
  +2.16077254861670523882e+008
  +2.22896836009445756674e+008
  +2.29931648913385540247e+008
  +2.37188486469982534647e+008
  +2.44674355965295910835e+008
  +2.52396485841266334057e+008
  +2.60362332675583660603e+008
  +2.68579588381844282150e+008
  +2.77056187636951327324e+008
  +2.85800315542931079865e+008
  +2.94820415530560612679e+008
  +3.04125197512443006039e+008
  +3.13723646293398797512e+008
  +3.23625030246297597885e+008
  +3.33838910261705338955e+008
  +3.44375148979991674423e+008
  +3.55243920314807534218e+008
  +3.66455719277134954929e+008
  +3.78021372109389960766e+008
  +3.89952046739367544651e+008
  +4.02259263564120888710e+008
  +4.14954906574191570282e+008
  +4.28051234828925311565e+008
  +4.41560894293962657452e+008
  +4.55496930052329003811e+008
  +4.69872798900916874409e+008
  +4.84702382344525694847e+008
  +5.00000000000000715256e+008
</indep>
<dep dBS11 frequency>
  -1.22097796133514123085e+002
  -1.21827873088080153252e+002
  -1.21557948373010447085e+002
  -1.21288021881217446207e+002
  -1.21018093498943670738e+002
  -1.20748163104904932652e+002
  -1.20478230570286385159e+002
  -1.20208295757832900108e+002
  -1.19938358521649121258e+002
  -1.19668418706352014169e+002
  -1.19398476146645975859e+002
  -1.19128530666831409235e+002
  -1.18858582079617306704e+002
  -1.18588630186066538386e+002
  -1.18318674774399212879e+002
  -1.18048715619080553552e+002
  -1.17778752480464049768e+002
  -1.17508785103363464941e+002
  -1.17238813216314653687e+002
  -1.16968836530525436501e+002
  -1.16698854738765078309e+002
  -1.16428867514142268647e+002
  -1.16158874508789267566e+002
  -1.15888875352847236400e+002
  -1.15618869652558146299e+002
  -1.15348856989330272427e+002
  -1.15078836917526089678e+002
  -1.14808808963479066279e+002
  -1.14538772623094246228e+002
  -1.14268727360270219151e+002
  -1.13998672604672123043e+002
  -1.13728607749809754068e+002
  -1.13458532150711619124e+002
  -1.13188445121332421195e+002
  -1.12918345932286513289e+002
  -1.12648233807728814782e+002
  -1.12378107923106327348e+002
  -1.12107967401570732591e+002
  -1.11837811310991497749e+002
  -1.11567638660606576195e+002
  -1.11297448397566682843e+002
  -1.11027239402951934721e+002
  -1.10757010487906569551e+002
  -1.10486760389699554707e+002
  -1.10216487766919200908e+002
  -1.09946191195462063206e+002
  -1.09675869163462550659e+002
  -1.09405520066409010838e+002
  -1.09135142202039858716e+002
  -1.08864733764999556342e+002
  -1.08594292841407437322e+002
  -1.08323817403267668169e+002
  -1.08053305302901094365e+002
  -1.07782754266933665122e+002
  -1.07512161890995230351e+002
  -1.07241525633784334559e+002
  -1.06970842811678664930e+002
  -1.06700110593826721583e+002
  -1.06429325997267312687e+002
  -1.06158485882944262357e+002
  -1.05887586952789774841e+002
  -1.05616625747374001776e+002
  -1.05345598645654220604e+002
  -1.05074501866229383040e+002
  -1.04803331471166956135e+002
  -1.04532083372960187262e+002
  -1.04260753344924467001e+002
  -1.03989337036531054537e+002
  -1.03717829994567495078e+002
  -1.03446227690955083744e+002
  -1.03174525559519366880e+002
  -1.02902719043289664569e+002
  -1.02630803654392636304e+002
  -1.02358775049654695977e+002
  -1.02086629124713098804e+002
  -1.01814362131313927762e+002
  -1.01541970821065376640e+002
  -1.01269452622984601931e+002
  -1.00996805860316101189e+002
  -1.00724030013856292953e+002
  -1.00451126043280339672e+002
  -1.00178096775349075642e+002
  -9.99049473729608763506e+001
  -9.96316859008662589758e+001
  -9.93583240053551577375e+001
  -9.90848777294227147650e+001
  -9.88113684889963224123e+001
  -9.85378242380675146705e+001
  -9.82642808571844597054e+001
  -9.79907838033748390671e+001
  -9.77173900669935164842e+001
  -9.74441704849821519474e+001
  -9.71712124680558702039e+001
  -9.68986232062697467882e+001
  -9.66265334213809836683e+001
  -9.63551017421306994493e+001
  -9.60845197810544959793e+001
  -9.58150179882912169660e+001
  -9.55468723554251937458e+001
  -9.52804120204651212589e+001
  -9.50160277924416760698e+001
  -9.47541815527448250123e+001
  -9.44954163845464734095e+001
  -9.42403671096917037175e+001
  -9.39897706293509429543e+001
  -9.37444750079253878994e+001
  -9.35054455000204285398e+001
  -9.32737645257757606032e+001
  -9.30506206610353387987e+001
  -9.28372785664475799194e+001
  -9.26350166700682962073e+001
  -9.24450111529802711630e+001
  -9.22681315321150208320e+001
  -9.21045923691456067672e+001
  -9.19533745901770060982e+001
  -9.18112880256520469402e+001
  -9.16715036286876028271e+001
  -9.15213801184023481028e+001
  -9.13395612664182579010e+001
  -9.10928706819549915963e+001
  -9.07347795880354510700e+001
  -9.02089217765527564552e+001
  -8.94611640643398970951e+001
  -8.84584634662808468875e+001
  -8.72036333965437506777e+001
  -8.57340853697776310582e+001
  -8.41056472520544815552e+001
  -8.23741752747198745510e+001
  -8.05847339615243356548e+001
  -7.87690146031131064319e+001
  -7.69472487571912466819e+001
  -7.51313515054790883596e+001
  -7.33277349899864248073e+001
  -7.15393765874127183224e+001
  -6.97672028356905542523e+001
  -6.80109692167064707746e+001
  -6.62698022101503738668e+001
  -6.45425256714806181435e+001
  -6.28278529850230782472e+001
  -6.11244969374838547083e+001
  -5.94312296937064772351e+001
  -5.77469128328875456191e+001
  -5.60705096760075250018e+001
  -5.44010873743063996244e+001
  -5.27378133059656946102e+001
  -5.10799485357056681778e+001
  -4.94268399938079880940e+001
  -4.77779123601510846697e+001
  -4.61326602329474084740e+001
  -4.44906409220523286763e+001
  -4.28514680734539510354e+001
  -4.12148062695482835238e+001
  -3.95803667396708576121e+001
  -3.79479043482500486562e+001
  -3.63172161033393905427e+001
  -3.46881415527659626719e+001
  -3.30605656227741633302e+001
  -3.14344247277671620111e+001
  -2.98097173734085529873e+001
  -2.81865210368416470033e+001
  -2.65650179021254473355e+001
  -2.49455331401375630662e+001
  -2.33285909498627859193e+001
  -2.17149956210657926192e+001
  -2.01059474876119352871e+001
  -1.85032067061876261960e+001
  -1.69093208057150405921e+001
  -1.53279335275866817057e+001
  -1.37641895507100535667e+001
  -1.22252363422522929426e+001
  -1.07207907639983712755e+001
  -9.26367149052584970548e+000
  -7.87009101872919636378e+000
  -6.55937191185470247490e+000
  -5.35268131599924235076e+000
  -4.27052192060333268842e+000
  -3.32921749814751954943e+000
  -2.53737380731662742761e+000
  -1.89375318067654951903e+000
  -1.38758782468316654857e+000
  -1.00117396646505851798e+000
  -7.13530561263161389185e-001
  -5.03731255568323099681e-001
  -3.53108517767149188149e-001
  -2.46246234485422432758e-001
  -1.71086840709877452404e-001
  -1.18554631417826114581e-001
  -8.20003026717458366468e-002
  -5.66434982812093340554e-002
  -3.90925164042059403169e-002
  -2.69628681571255982008e-002
  -1.85887855620673336787e-002
  -1.28116898312885443140e-002
  -8.82820549764819391403e-003
  -6.08242570727704923855e-003
  -4.19023804396670418448e-003
  -2.88649810385226785955e-003
  -1.98830792914660332837e-003
  -1.36956312843205933218e-003
  -9.43345568130209057717e-004
  -6.49759860099851987644e-004
</dep>
<dep dBS21 frequency>
  -2.68275901195207322613e-012
  -2.85440930099866766569e-012
  -3.03570286471080872921e-012
  -3.23146134042126710335e-012
  -3.44072040066349147805e-012
  -3.65865840810471197445e-012
  -3.89009700007770251038e-012
  -4.14082214138178871762e-012
  -4.40986950455042130560e-012
  -4.69048879731772131300e-012
  -4.98846598448301921837e-012
  -5.30958703084564388464e-012
  -5.65095895400593936219e-012
  -6.01258175396390726659e-012
  -6.40120572298543786828e-012
  -6.81104489627120795885e-012
  -7.24499225622088964381e-012
  -7.70979809510037319360e-012
  -8.20449808544311577999e-012
  -8.73198520964879273967e-012
  -9.29129514025085962884e-012
  -9.88532085964899663093e-012
  -1.05208126601091053255e-011
  -1.11958418866980935937e-011
  -1.19133015218156480814e-011
  -1.26741558929283455442e-011
  -1.34899769296348840975e-011
  -1.43540143396693993204e-011
  -1.52739827427643760104e-011
  -1.62547037762526268592e-011
  -1.72942487852010855976e-011
  -1.84051540266750351745e-011
  -1.95825978633417485243e-011
  -2.08410452071996491823e-011
  -2.21824247131819132780e-011
  -2.36096293636883017740e-011
  -2.51216948312523396968e-011
  -2.67292287180062663444e-011
  -2.84476602634151385532e-011
  -3.02712035026797316658e-011
  -3.22181806576648247074e-011
  -3.42818414361046566545e-011
  -3.64824367147971891241e-011
  -3.88228594761423090948e-011
  -4.13175746321386824401e-011
  -4.39685108377196985469e-011
  -4.67968832971500428061e-011
  -4.98017276829635019692e-011
  -5.30032948719583155343e-011
  -5.64054421740011588773e-011
  -6.00313134482901326254e-011
  -6.38857303321586036169e-011
  -6.79928010122714156400e-011
  -7.23631330907615285444e-011
  -7.70179417718942933430e-011
  -8.19668703303363532396e-011
  -8.72388485900858800864e-011
  -9.28502701180758015609e-011
  -9.88223501185720890614e-011
  -1.05181125433173809406e-010
  -1.11953597230946850121e-010
  -1.19160980716157880540e-010
  -1.26832205712806545930e-010
  -1.35001023682225690375e-010
  -1.43700221758282022262e-010
  -1.52955836782576585885e-010
  -1.62825728403108309891e-010
  -1.73322432876947039645e-010
  -1.84504774179559648950e-010
  -1.96411325409615243862e-010
  -2.09091267267916394348e-010
  -2.22595709110199777085e-010
  -2.36978653274603086639e-010
  -2.52296030754198305228e-010
  -2.68613415816725027627e-010
  -2.85990596765124871187e-010
  -3.04504719796740028825e-010
  -3.24224252161715611001e-010
  -3.45226340057398360125e-010
  -3.67609344885403652496e-010
  -3.91447519860684114421e-010
  -4.16845012349661500677e-010
  -4.43908862701161453210e-010
  -4.72735503661880983890e-010
  -5.03448369147588446338e-010
  -5.36170893074057674244e-010
  -5.71016866082402488466e-010
  -6.08141544894810840463e-010
  -6.47677042374278565201e-010
  -6.89774757933144580973e-010
  -7.34592841276024714649e-010
  -7.82291370762479885797e-010
  -8.33035246389417408919e-010
  -8.87002868738292522004e-010
  -9.44346601548974178748e-010
  -1.00525545300508440092e-009
  -1.06988082251905899035e-009
  -1.13837218084841895165e-009
  -1.21086646249363596848e-009
  -1.28748903002559988342e-009
  -1.36830256472987452499e-009
  -1.45333985374056782811e-009
  -1.54256714559658641749e-009
  -1.63586872100215841125e-009
  -1.73303435656975411465e-009
  -1.83373907394326728856e-009
  -1.93749106611478240340e-009
  -2.04365869859362829995e-009
  -2.15140879244846692239e-009
  -2.25973458980381052976e-009
  -2.36746250413226758534e-009
  -2.47334083838149341547e-009
  -2.57615453994277564619e-009
  -2.67501257023625138709e-009
  -2.76979438832825569837e-009
  -2.86190791232061601107e-009
  -2.95552578716377685752e-009
  -3.05947257351047268609e-009
  -3.19027684415027765752e-009
  -3.37673534591412754097e-009
  -3.66696512644816236707e-009
  -4.13896870596138544388e-009
  -4.91663612726205493901e-009
  -6.19353298583747753707e-009
  -8.26838864527534349136e-009
  -1.15978092703452783647e-008
  -1.68740614466191275373e-008
  -2.51400884860411771566e-008
  -3.79586679394275847222e-008
  -5.76610914219608862259e-008
  -8.77120878753562296260e-008
  -1.33244466599371784498e-007
  -2.01841668765259435414e-007
  -3.04681911662867122608e-007
  -4.58209463465791870582e-007
  -6.86574111889889872750e-007
  -1.02518948155429392069e-006
  -1.52592019458672390397e-006
  -2.26463975398345351825e-006
  -3.35223754420535984664e-006
  -4.95064277295684592058e-006
  -7.29614393528178682940e-006
  -1.07333151316107447903e-005
  -1.57643606566355582582e-005
  -2.31208681297346358081e-005
  -3.38681247750234653204e-005
  -4.95567468923137550464e-005
  -7.24430451197471421800e-005
  -1.05809235978458727415e-004
  -1.54428673332429952517e-004
  -2.25241684181624082480e-004
  -3.28337208180632452326e-004
  -4.78378393514335869315e-004
  -6.96672567099092905282e-004
  -1.01417618642573020143e-003
  -1.47585586917067584575e-003
  -2.14701508272966508015e-003
  -3.12246768557621632093e-003
  -4.53982953209851238657e-003
  -6.59875651309248766052e-003
  -9.58874722872582289923e-003
  -1.39292352397355490012e-002
  -2.02272193799067842579e-002
  -2.93597199143820104805e-002
  -4.25909541855074291750e-002
  -6.17371878459575182396e-002
  -8.93952256390198041203e-002
  -1.29252078160353278680e-001
  -1.86490412837626406972e-001
  -2.68291042459223416650e-001
  -3.84400092033778062461e-001
  -5.47661909682184755432e-001
  -7.74311509397648034536e-001
  -1.08369119609880981692e+000
  -1.49698541728598866207e+000
  -2.03471201839781157261e+000
  -2.71320804195600295827e+000
  -3.54109085903965947750e+000
  -4.51713295788553192978e+000
  -5.63057542072808647760e+000
  -6.86372222621241068197e+000
  -8.19559909380458329053e+000
  -9.60528556747379091973e+000
  -1.10741192524203384551e+001
  -1.25866885047667267372e+001
  -1.41309396438123453521e+001
  -1.56978003359193678534e+001
  -1.72806241991646167833e+001
  -1.88746334058973666004e+001
  -2.04764384384880813172e+001
  -2.20836566911427212290e+001
  -2.36946240158198726533e+001
  -2.53081832238751367470e+001
  -2.69235321294923046764e+001
  -2.85401158407028567865e+001
  -3.01575511077896898371e+001
  -3.17755735166719013307e+001
  -3.33940007847104141092e+001
  -3.50127073230546841387e+001
  -3.66316066426735105210e+001
  -3.82506392025212136332e+001
</dep>
<dep S[1,1] frequency>
  -2.50344824408185104021e-008-j7.85035828892695700110e-007
  -2.66394090594744242079e-008-j8.09788260711747850951e-007
  -2.83472097469054467006e-008-j8.35319559138944511822e-007
  -3.01644765383309798265e-008-j8.61654077176539356930e-007
  -3.20982235128067583879e-008-j8.88816914075118286176e-007
  -3.41559140400163616178e-008-j9.16833936737268193062e-007
  -3.63454891661431031026e-008-j9.45731801515461642516e-007
  -3.86753984347043578020e-008-j9.75537976532960676712e-007
  -4.11546321400156996833e-008-j1.00628076439308183909e-006
  -4.37927563587772049238e-008-j1.03798932536290806905e-006
  -4.65999489429487648653e-008-j1.07069370097918892260e-006
  -4.95870393510490083491e-008-j1.10442483799836656255e-006
  -5.27655499939262638532e-008-j1.13921461285357468463e-006
  -5.61477400067179679435e-008-j1.17509585633801885707e-006
  -5.97466529116000127626e-008-j1.21210237870881046285e-006
  -6.35761668823837147431e-008-j1.25026899506705535536e-006
  -6.76510465719516749584e-008-j1.28963155099359738642e-006
  -7.19870014311432360275e-008-j1.33022694838815826179e-006
  -7.66007447750956929947e-008-j1.37209317151100636256e-006
  -8.15100580113390632401e-008-j1.41526931309943551640e-006
  -8.67338585245058316651e-008-j1.45979560054560961180e-006
  -9.22922723478602030048e-008-j1.50571342201998026322e-006
  -9.82067108486035125043e-008-j1.55306535251252195162e-006
  -1.04499951963641376053e-007-j1.60189517961397548396e-006
  -1.11196228148075088851e-007-j1.65224792902105357961e-006
  -1.18321317515468176352e-007-j1.70416988955288811747e-006
  -1.25902643342985121760e-007-j1.75770863764315721234e-006
  -1.33969376394605320900e-007-j1.81291306107804126024e-006
  -1.42552547502882657332e-007-j1.86983338183776062746e-006
  -1.51685164519905154343e-007-j1.92852117784697227321e-006
  -1.61402337930763169714e-007-j1.98902940344624148961e-006
  -1.71741412637290081144e-007-j2.05141240837251881413e-006
  -1.82742109926898129877e-007-j2.11572595486351350269e-006
  -1.94446677464157975028e-007-j2.18202723277797702717e-006
  -2.06900047622133356458e-007-j2.25037487229604732386e-006
  -2.20150007145890038102e-007-j2.32082895392339907947e-006
  -2.34247375798112377593e-007-j2.39345101522413922224e-006
  -2.49246197199048355768e-007-j2.46830405418747150792e-006
  -2.65203940480913878913e-007-j2.54545252843059108261e-006
  -2.82181714546536971324e-007-j2.62496234985226672976e-006
  -3.00244494262797838617e-007-j2.70690087422883682300e-006
  -3.19461362711850188623e-007-j2.79133688487788467203e-006
  -3.39905765101002294102e-007-j2.87834057003961280019e-006
  -3.61655779735780316371e-007-j2.96798349274859929459e-006
  -3.84794404410490517273e-007-j3.06033855287501238562e-006
  -4.09409859010841309726e-007-j3.15547993985469676925e-006
  -4.35595906548693419420e-007-j3.25348307553957605265e-006
  -4.63452192648697742236e-007-j3.35442454571423936960e-006
  -4.93084604124975519864e-007-j3.45838201921185722787e-006
  -5.24605647841523708595e-007-j3.56543415325118878689e-006
  -5.58134851286492910099e-007-j3.67566048337271411572e-006
  -5.93799184246252529946e-007-j3.78914129659912307657e-006
  -6.31733503955445019600e-007-j3.90595748576277879138e-006
  -6.72081024074375080277e-007-j4.02619038334869894236e-006
  -7.14993808190194811078e-007-j4.14992157224663288373e-006
  -7.60633287484775710841e-007-j4.27723267193685224852e-006
  -8.09170805905787911185e-007-j4.40820509664801435390e-006
  -8.60788189868043297423e-007-j4.54291978340629759581e-006
  -9.15678345570064273866e-007-j4.68145688686198019335e-006
  -9.74045882398047577124e-007-j4.82389543763825368039e-006
  -1.03610776264240515235e-006-j4.97031296069466027587e-006
  -1.10209397785113308093e-006-j5.12078505027560582086e-006
  -1.17224824871938008162e-006-j5.27538489723464176784e-006
  -1.24682875034457635831e-006-j5.43418276438469710632e-006
  -1.32610885707217413280e-006-j5.59724540581847673781e-006
  -1.41037790716396491727e-006-j5.76463542478235224653e-006
  -1.49994198207017992181e-006-j5.93641056568887381939e-006
  -1.59512469560155569544e-006-j6.11262293460750061325e-006
  -1.69626798746857967038e-006-j6.29331814276136436437e-006
  -1.80373291287567636635e-006-j6.47853436799156190418e-006
  -1.91790041927980190167e-006-j6.66830132788238938435e-006
  -2.03917209725528196431e-006-j6.86263915956886183523e-006
  -2.16797089209439007920e-006-j7.06155720079683357771e-006
  -2.30474175800225332053e-006-j7.26505266712869357537e-006
  -2.44995223248996513762e-006-j7.47310922174539149498e-006
  -2.60409290521546672899e-006-j7.68569543385319575712e-006
  -2.76767774987291600292e-006-j7.90276312518344015157e-006
  -2.94124427978637872048e-006-j8.12424560359299718915e-006
  -3.12535348014555285946e-006-j8.35005578826535088677e-006
  -3.32058946621923301717e-006-j8.58008423230104122492e-006
  -3.52755879384728941901e-006-j8.81419705451962076648e-006
  -3.74688934791936540183e-006-j9.05223379868425048755e-006
  -3.97922871439105110825e-006-j9.29400524465537336560e-006
  -4.22524191819666455720e-006-j9.53929120865726343226e-006
  -4.48560839701707338330e-006-j9.78783838066245304166e-006
  -4.76101804852945833732e-006-j1.00393582648742457630e-005
  -5.05216616024291862233e-006-j1.02935253087910183467e-005
  -5.35974699755411860408e-006-j1.05499753340794477641e-005
  -5.68444578162173499297e-006-j1.08083044137105566129e-005
  -6.02692873997409976281e-006-j1.10680683830487180952e-005
  -6.38783085485936444337e-006-j1.13287832216243944394e-005
  -6.76774086723233407603e-006-j1.15899266096945730009e-005
  -7.16718301571362152377e-006-j1.18509410411311855160e-005
  -7.58659489270515664805e-006-j1.21112389756851401845e-005
  -8.02630069965268528112e-006-j1.23702106373142772799e-005
  -8.48647905032142444229e-006-j1.26272352192306758223e-005
  -8.96712432909717218482e-006-j1.28816964459939342635e-005
  -9.46800044627691111260e-006-j1.31330036825423601687e-005
  -9.98858563187540477585e-006-j1.33806200676607478517e-005
  -1.05280066943858139489e-005-j1.36240995156772237706e-005
  -1.10849609168115793845e-005-j1.38631348740349269466e-005
  -1.16576234764157729215e-005-j1.40976200746316393531e-005
  -1.22435379538213522793e-005-j1.43277297986188489887e-005
  -1.28394871394386543215e-005-j1.45540210081153420507e-005
  -1.34413409523899060605e-005-j1.47775617284594262824e-005
  -1.40438778560525402359e-005-j1.50000937309546777954e-005
  -1.46405757011338006138e-005-j1.52242373178922141275e-005
  -1.52233674450807368247e-005-j1.54537483198109726334e-005
  -1.57823567213120951117e-005-j1.56938397521920458555e-005
  -1.63054877668179169087e-005-j1.59515834357165653401e-005
  -1.67781638151769801892e-005-j1.62364103866510789409e-005
  -1.71828077594740266654e-005-j1.65607330482250847403e-005
  -1.74983587733412368492e-005-j1.69407176453043040176e-005
  -1.76996987290576127116e-005-j1.73972412765913131416e-005
  -1.77570028238403093690e-005-j1.79570760668740225796e-005
  -1.76350099907298177304e-005-j1.86543520340892721165e-005
  -1.72922106724329727179e-005-j1.95323616426004709190e-005
  -1.66799527192859706887e-005-j2.06457826599434901560e-005
  -1.57414709579199035838e-005-j2.20634123867871623226e-005
  -1.44108529323502560643e-005-j2.38715260800978490430e-005
  -1.26119632174936588398e-005-j2.61779960424729507551e-005
  -1.02573624933786911040e-005-j2.91173360541657766376e-005
  -7.24727654074575414200e-006-j3.28568693412079060323e-005
  -3.46869608079105815057e-006-j3.76042578739618771344e-005
  +1.20527691686552265726e-006-j4.36166773692611697832e-005
  +6.91567456336450100962e-006-j5.12119767516541757324e-005
  +1.38172767672494790914e-005-j6.07822238653313307033e-005
  +2.20772893509304894699e-005-j7.28101116045307139579e-005
  +3.18726768946896686641e-005-j8.78887807823081068648e-005
  +4.33856030449546355154e-005-j1.06745707982115745072e-004
  +5.67962528450600100116e-005-j1.30271407615803469504e-004
  +7.22720819558249003012e-005-j1.59553805586284958018e-004
  +8.99522429939061604620e-005-j1.95919253903276135986e-004
  +1.09925562990565058030e-004-j2.40981265412637535306e-004
  +1.32199967850622941701e-004-j2.96698146275975460640e-004
  +1.56660644995223335973e-004-j3.65440776869979666586e-004
  +1.83013474465506045807e-004-j4.50071818718714156127e-004
  +2.10709306403305401956e-004-j5.54037575985655283972e-004
  +2.38843477741041039508e-004-j6.81473572618232492637e-004
  +2.66023495627550066178e-004-j8.37324561065527772641e-004
  +2.90196016255435743081e-004-j1.02747907356141865431e-003
  +3.08422057332813012720e-004-j1.25891764976177045199e-003
  +3.16586740577173147981e-004-j1.53987237231184570518e-003
  +3.09026710248358829625e-004-j1.87999310882501491360e-003
  +2.78054669171731716482e-004-j2.29051261935632466393e-003
  +2.13356193770242522079e-004-j2.78439807695364527351e-003
  +1.01229159026808637756e-004-j3.37647008255700931123e-003
  -7.63691740609650365768e-005-j4.08346130212844382612e-003
  -3.43007851433355451243e-004-j4.92397459097915213277e-003
  -7.29246422207547803640e-004-j5.91828383677540925678e-003
  -1.27442767958230174230e-003-j7.08789839206197536114e-003
  -2.02885111932259339096e-003-j8.45478216435623097791e-003
  -3.05637728026183184971e-003-j1.00400790498183650756e-002
  -4.43750393162329649643e-003-j1.18621448255205319544e-002
  -6.27293397747412384557e-003-j1.39336187641439235296e-002
  -8.68761477260697120850e-003-j1.62571826223781162879e-002
  -1.18351583737232070315e-002-j1.88195467185717363323e-002
  -1.59024355951511223162e-002-j2.15830696690567785945e-002
  -2.11139488118047870258e-002-j2.44742594259527157519e-002
  -2.77352922725673141369e-002-j2.73682236649990945354e-002
  -3.60745497831264014255e-002-j3.00679547554474208004e-002
  -4.64797795580757650002e-002-j3.22771910501677000704e-002
  -5.93296864836587167780e-002-j3.35655835450231476713e-002
  -7.50130448121209270074e-002-j3.33251985151752916359e-002
  -9.38902623013563586429e-002-j3.07183519213283240390e-002
  -1.16227590256433449545e-001-j2.46190330015665370667e-002
  -1.42091076145699185540e-001-j1.35548087928545613057e-002
  -1.71184366726699593864e-001+j4.33523001404495511579e-003
  -2.02614537290217416876e-001+j3.12960867132763831400e-002
  -2.34579158753945388183e-001+j6.98530738903522241401e-002
  -2.63996744565601682009e-001+j1.22527692170299684626e-001
  -2.86166773582811673204e-001+j1.91272713529647725439e-001
  -2.94653813945175091504e-001+j2.76551807495850288099e-001
  -2.81714696494041016983e-001+j3.76123966449550817259e-001
  -2.39613274925001645821e-001+j4.83888535455718415967e-001
  -1.62889729655572135236e-001+j5.89518928945634179684e-001
  -5.09636638177734524469e-002+j6.79707056776718943070e-001
  +9.02831921118351921063e-002+j7.41196146818631107500e-001
  +2.49222790511774872080e-001+j7.64507420644560453660e-001
  +4.11480692760281707709e-001+j7.46453619147921632049e-001
  +5.63681368758335188396e-001+j6.90200593168711185044e-001
  +6.96111211505191063154e-001+j6.03257492698186847946e-001
  +8.03522327288588300576e-001+j4.94810484225585545115e-001
  +8.84488777299719197700e-001+j3.73618688060435855114e-001
  +9.40168703093291702189e-001+j2.46900840384741304678e-001
  +9.73119453198408312922e-001+j1.20042453619837452550e-001
  +9.86438322756879260034e-001-j3.23287996007110001173e-003
  +9.83245116859952861255e-001-j1.20519323150583029802e-001
  +9.66420498140114103691e-001-j2.30376778443162510968e-001
  +9.38503832351043176807e-001-j3.32038496697755147746e-001
  +9.01677679121509090265e-001-j4.25191916226627053543e-001
  +8.57792960506629897921e-001-j5.09823653790576480915e-001
  +8.08409123210299895845e-001-j5.86113500854905766779e-001
  +7.54836426159422924087e-001-j6.54363251552030122937e-001
  +6.98174738095788227632e-001-j7.14949288476763089584e-001
  +6.39346982328799828821e-001-j7.68291001852770105707e-001
  +5.79127125381860397013e-001-j8.14829646442243982207e-001
  +5.18163314948268172166e-001-j8.55014069479455685041e-001
  +4.56996967902884354551e-001-j8.89290991454391610560e-001
  +3.96078578150869886620e-001-j9.18098344500644425459e-001
  +3.35780900900392198505e-001-j9.41860703631465456809e-001
</dep>
<dep S[1,2] frequency>
  +9.99870424518651934598e-001-j1.60976449294015361291e-002
  +9.99862116579828708041e-001-j1.66056565015626315940e-002
  +9.99853275974718180841e-001-j1.71296970762810814304e-002
  +9.99843868552627967894e-001-j1.76702721249907546142e-002
  +9.99833857973555506504e-001-j1.82279030314464983442e-002
  +9.99823205567861306164e-001-j1.88031275899458345802e-002
  +9.99811870186949280814e-001-j1.93965005188856468021e-002
  +9.99799808044383397920e-001-j2.00085939900999827679e-002
  +9.99786972546824137531e-001-j2.06399981744350285995e-002
  +9.99773314114133282438e-001-j2.12913218040281619625e-002
  +9.99758779987952928003e-001-j2.19631927517677794093e-002
  +9.99743314028025742424e-001-j2.26562586284209839527e-002
  +9.99726856495467885999e-001-j2.33711873979263635992e-002
  +9.99709343822160034776e-001-j2.41086680113582335627e-002
  +9.99690708365367886046e-001-j2.48694110600790468935e-002
  +9.99670878146653008045e-001-j2.56541494486051541157e-002
  +9.99649776574059290013e-001-j2.64636390877201824190e-002
  +9.99627322146514063483e-001-j2.72986596083785726385e-002
  +9.99603428139304917011e-001-j2.81600150969493930042e-002
  +9.99578002269418064429e-001-j2.90485348523576089597e-002
  +9.99550946339457735412e-001-j2.99650741656862507067e-002
  +9.99522155858771577108e-001-j3.09105151228080930748e-002
  +9.99491519640330894347e-001-j3.18857674306200489234e-002
  +9.99458919371816190136e-001-j3.28917692674560863120e-002
  +9.99424229159257326849e-001-j3.39294881582566029699e-002
  +9.99387315041481150146e-001-j3.49999218750719903737e-002
  +9.99348034473499180486e-001-j3.61040993634767701237e-002
  +9.99306235776861173647e-001-j3.72430816954669591246e-002
  +9.99261757554854801455e-001-j3.84179630494072832381e-002
  +9.99214428070324123254e-001-j3.96298717175869036344e-002
  +9.99164064583716315937e-001-j4.08799711419308153815e-002
  +9.99110472648822467434e-001-j4.21694609783996657293e-002
  +9.99053445363525804979e-001-j4.34995781905932882294e-002
  +9.98992762572681214372e-001-j4.48715981730507113001e-002
  +9.98928190020094697310e-001-j4.62868359047138716589e-002
  +9.98859478446353588055e-001-j4.77466471329906425036e-002
  +9.98786362629073054542e-001-j4.92524295888163016199e-002
  +9.98708560361897368374e-001-j5.08056242330699389664e-002
  +9.98625771368370607206e-001-j5.24077165346529538770e-002
  +9.98537676146547759082e-001-j5.40602377804799069660e-002
  +9.98443934739941085788e-001-j5.57647664175665996877e-002
  +9.98344185430157682326e-001-j5.75229294273265218118e-002
  +9.98238043346245440546e-001-j5.93364037321014586857e-002
  +9.98125098985504388693e-001-j6.12069176338578060936e-002
  +9.98004916640147454743e-001-j6.31362522848702700795e-002
  +9.97877032723882506637e-001-j6.51262431900944682717e-002
  +9.97740953992090950919e-001-j6.71787817407917958734e-002
  +9.97596155648912574776e-001-j6.92958167788174095314e-002
  +9.97442079334105002886e-001-j7.14793561908089597479e-002
  +9.97278130982138244498e-001-j7.37314685313219669860e-002
  +9.97103678545487315255e-001-j7.60542846737432276516e-002
  +9.96918049573629505566e-001-j7.84499994875731410104e-002
  +9.96720528638696423585e-001-j8.09208735404017415194e-002
  +9.96510354598218128785e-001-j8.34692348226064168015e-002
  +9.96286717684781164550e-001-j8.60974804924697079134e-002
  +9.96048756411836988534e-001-j8.88080786390489651527e-002
  +9.95795554284224393449e-001-j9.16035700597241653309e-002
  +9.95526136301310149435e-001-j9.44865700489002091622e-002
  +9.95239465239903364768e-001-j9.74597701938417493306e-002
  +9.94934437703360541327e-001-j1.00525940173066569150e-001
  +9.94609879922483730574e-001-j1.03687929552114768694e-001
  +9.94264543292975977451e-001-j1.06948669570836707443e-001
  +9.93897099633325398216e-001-j1.10311174915597609569e-001
  +9.93506136146062868164e-001-j1.13778545468975617050e-001
  +9.93090150064357746196e-001-j1.17353968028623717457e-001
  +9.92647542964884777028e-001-j1.21040717985965246006e-001
  +9.92176614726819394718e-001-j1.24842160954289460584e-001
  +9.91675557115716310719e-001-j1.28761754334603156780e-001
  +9.91142446969799362222e-001-j1.32803048806248519265e-001
  +9.90575238965034410299e-001-j1.36969689727835935988e-001
  +9.89971757934018925518e-001-j1.41265418432407724447e-001
  +9.89329690712433595934e-001-j1.45694073398975026956e-001
  +9.88646577485412403341e-001-j1.50259591280604204444e-001
  +9.87919802604766861265e-001-j1.54966007767075170110e-001
  +9.87146584846534946855e-001-j1.59817458257764943852e-001
  +9.86323967076815577570e-001-j1.64818178317809371780e-001
  +9.85448805292298946057e-001-j1.69972503887734910366e-001
  +9.84517757000334614581e-001-j1.75284871213618353991e-001
  +9.83527268901759121889e-001-j1.80759816461390054876e-001
  +9.82473563838097030398e-001-j1.86401974975115264366e-001
  +9.81352626963121088544e-001-j1.92216080134954669933e-001
  +9.80160191097112165615e-001-j1.98206961765954370325e-001
  +9.78891721220592869734e-001-j2.04379544043848365709e-001
  +9.77542398062710815587e-001-j2.10738842838602696839e-001
  +9.76107100737950372782e-001-j2.17289962430457395115e-001
  +9.74580388383440965328e-001-j2.24038091526694294053e-001
  +9.72956480747797725073e-001-j2.30988498500204059161e-001
  +9.71229237681266455162e-001-j2.38146525763103272810e-001
  +9.69392137475987847317e-001-j2.45517583180110465779e-001
  +9.67438254004401865238e-001-j2.53107140417033638080e-001
  +9.65360232603386325678e-001-j2.60920718109523830375e-001
  +9.63150264651579601782e-001-j2.68963877726104694244e-001
  +9.60800060787638576798e-001-j2.77242209987325904930e-001
  +9.58300822717979339238e-001-j2.85761321689629699261e-001
  +9.55643213563936333443e-001-j2.94526820768073793744e-001
  +9.52817326700348687929e-001-j3.03544299416300067396e-001
  +9.49812653040536081228e-001-j3.12819315065021585909e-001
  +9.46618046726457551543e-001-j3.22357369001650628793e-001
  +9.43221689187911938035e-001-j3.32163882393450182740e-001
  +9.39611051540944708371e-001-j3.42244169454593960555e-001
  +9.35772855303515060932e-001-j3.52603407473670693584e-001
  +9.31693031416094830099e-001-j3.63246603392301248281e-001
  +9.27356677566605225316e-001-j3.74178556597566325248e-001
  +9.22748013833134872463e-001-j3.85403817560661943187e-001
  +9.17850336674697953043e-001-j3.96926641921524103740e-001
  +9.12645971320219295819e-001-j4.08750939583922612286e-001
  +9.07116222629476998129e-001-j4.20880218347578494154e-001
  +9.01241324527380927023e-001-j4.33317521563070739976e-001
  +8.95000388145387848482e-001-j4.46065359251561932563e-001
  +8.88371348841607955116e-001-j4.59125632084529888832e-001
  +8.81330912315150705183e-001-j4.72499547568689115540e-001
  +8.73854500081222784758e-001-j4.86187527728024315721e-001
  +8.65916194632519564678e-001-j5.00189107518301590005e-001
  +8.57488684680542068151e-001-j5.14502823149581511863e-001
  +8.48543210948977777441e-001-j5.29126089429192592029e-001
  +8.39049513081516096236e-001-j5.44055065171432872262e-001
  +8.28975778330066304100e-001-j5.59284505651216679034e-001
  +8.18288592808077086538e-001-j5.74807601007247814806e-001
  +8.06952896229491734026e-001-j5.90615799426536525196e-001
  +7.94931941209115477953e-001-j6.06698613866873182054e-001
  +7.82187258377265881570e-001-j6.23043410997906610405e-001
  +7.68678628763424631742e-001-j6.39635180965953842325e-001
  +7.54364065133267924779e-001-j6.56456286513819153861e-001
  +7.39199804224586864976e-001-j6.73486189916481459150e-001
  +7.23140312123978223902e-001-j6.90701156128588289462e-001
  +7.06138305362331020198e-001-j7.08073930482913005413e-001
  +6.88144790687880147928e-001-j7.25573389233465149140e-001
  +6.69109126906263895762e-001-j7.43164161206673057336e-001
  +6.48979112663854329490e-001-j7.60806218813785739563e-001
  +6.27701104600008275014e-001-j7.78454436692972207013e-001
  +6.05220170913411847913e-001-j7.96058116297476137113e-001
  +5.81480286085395148277e-001-j8.13560474834769231656e-001
  +5.56424573287983892378e-001-j8.30898097100675969706e-001
  +5.29995601886573575179e-001-j8.48000348953518057193e-001
  +5.02135748437384954457e-001-j8.64788751450089709927e-001
  +4.72787630690671312195e-001-j8.81176315033706747393e-001
  +4.41894625355710113368e-001-j8.97066833643493266592e-001
  +4.09401481778531084466e-001-j9.12354139225276639102e-001
  +3.75255045246008889226e-001-j9.26921317893260043874e-001
  +3.39405105381538285680e-001-j9.40639889947276763849e-001
  +3.01805387063208196974e-001-j9.53368957126595306661e-001
  +2.62414703506991420223e-001-j9.64954321916598800613e-001
  +2.21198293655323036111e-001-j9.75227585463970259028e-001
  +1.78129368849461844349e-001-j9.84005232751175684669e-001
  +1.33190897015796672065e-001-j9.91087716193510992468e-001
  +8.63776563645946710013e-002-j9.96258551826504579196e-001
  +3.76985950313593956573e-002-j9.99283445842619855171e-001
  -1.28204616030307017721e-002-j9.99909473540393944901e-001
  -6.51337076911647772093e-002-j9.97864337944914470135e-001
  -1.19171801465990073732e-001-j9.92855741712476924654e-001
  -1.74837790855549873870e-001-j9.84570913860054908184e-001
  -2.32002439924521242087e-001-j9.72676343030279388913e-001
  -2.90498857905580332162e-001-j9.56817782509369441080e-001
  -3.50116308361659078763e-001-j9.36620610865572134074e-001
  -4.10593043198104634683e-001-j9.11690658855715541087e-001
  -4.71607961777793405211e-001-j8.81615653077088112788e-001
  -5.32770835654856389496e-001-j8.45967487769596182545e-001
  -5.93610760685040927953e-001-j8.04305631240219587319e-001
  -6.53562397903892922102e-001-j7.56182123457858290649e-001
  -7.11949444118689878103e-001-j7.01148859312390682064e-001
  -7.67964644529894657765e-001-j6.38768228473240551324e-001
  -8.20645557587110552333e-001-j5.68628773315845714720e-001
  -8.68845287940802624149e-001-j4.90368438550132623721e-001
  -9.11197687867277061891e-001-j4.03709360651033244416e-001
  -9.46077426691611877985e-001-j3.08510136308027593799e-001
  -9.71557461061959060089e-001-j2.04844209906186319747e-001
  -9.85370872237438133467e-001-j9.31162573580710806187e-002
  -9.84892426959660061137e-001+j2.57686958655955651587e-002
  -9.67169702780741324943e-001+j1.50168805875646266257e-001
  -9.29055784616920177221e-001+j2.77395954217430906752e-001
  -8.67523082195210348821e-001+j4.03356399935226428433e-001
  -7.80256947760151309268e-001+j5.22228323847166331362e-001
  -6.66601683157316049488e-001+j6.26370835615909449245e-001
  -5.28796508942916299034e-001+j7.06782741562999472507e-001
  -3.73143716521987689472e-001+j7.54454193807943096495e-001
  -2.10379496801112897408e-001+j7.62676101443617415754e-001
  -5.44247999222459283297e-002+j7.29684152967310040161e-001
  +8.06613382896589903304e-002+j6.60280974789242636191e-001
  +1.84430933059173407518e-001+j5.65156292895908296536e-001
  +2.52590911841216458900e-001+j4.57917531004994438071e-001
  +2.87101661840639399426e-001+j3.51367459325178876917e-001
  +2.94208592112247757644e-001+j2.54854631206894444162e-001
  +2.81818604227972946408e-001+j1.73472558521992281655e-001
  +2.57436982771336364539e-001+j1.08696267941625970832e-001
  +2.27090558963656347080e-001+j5.96042177262686920236e-002
  +1.95065102017671992973e-001+j2.40404889840881465235e-002
  +1.64099597625517040766e-001-j5.53121054186418432790e-004
  +1.35745862787002902206e-001-j1.66491337490828512913e-002
  +1.10728793432250324780e-001-j2.64025573344968192413e-002
  +8.92405106442226703223e-002-j3.15772803302825713634e-002
  +7.11558251985481143853e-002-j3.35566072464262843411e-002
  +5.61792699211966159445e-002-j3.33911451139200857186e-002
  +4.39400391139906920657e-002-j3.18579124962889634332e-002
  +3.40501267304291962978e-002-j2.95176833570278095153e-002
  +2.61377160000580699428e-002-j2.67650853491576551368e-002
  +1.98645494965914784502e-002-j2.38699043236742271257e-002
  +1.49332954432392570054e-002-j2.10099170144595129295e-002
  +1.10889210531509452978e-002-j1.82963347115849550573e-002
  +8.11667910059020447644e-003-j1.57931430061167034362e-002
  +5.83836099794245600575e-003-j1.35315666505641425676e-002
  +4.10783688556960388527e-003-j1.15207300759489345010e-002
</dep>
<dep S[2,1] frequency>
  +9.99870424518651934598e-001-j1.60976449294015361291e-002
  +9.99862116579828708041e-001-j1.66056565015626315940e-002
  +9.99853275974718180841e-001-j1.71296970762810814304e-002
  +9.99843868552627967894e-001-j1.76702721249907546142e-002
  +9.99833857973555506504e-001-j1.82279030314464983442e-002
  +9.99823205567861306164e-001-j1.88031275899458345802e-002
  +9.99811870186949280814e-001-j1.93965005188856468021e-002
  +9.99799808044383397920e-001-j2.00085939900999827679e-002
  +9.99786972546824137531e-001-j2.06399981744350285995e-002
  +9.99773314114133282438e-001-j2.12913218040281619625e-002
  +9.99758779987952928003e-001-j2.19631927517677794093e-002
  +9.99743314028025742424e-001-j2.26562586284209839527e-002
  +9.99726856495467885999e-001-j2.33711873979263635992e-002
  +9.99709343822160034776e-001-j2.41086680113582335627e-002
  +9.99690708365367886046e-001-j2.48694110600790468935e-002
  +9.99670878146653008045e-001-j2.56541494486051541157e-002
  +9.99649776574059290013e-001-j2.64636390877201824190e-002
  +9.99627322146514063483e-001-j2.72986596083785726385e-002
  +9.99603428139304917011e-001-j2.81600150969493930042e-002
  +9.99578002269418064429e-001-j2.90485348523576089597e-002
  +9.99550946339457735412e-001-j2.99650741656862507067e-002
  +9.99522155858771577108e-001-j3.09105151228080930748e-002
  +9.99491519640330894347e-001-j3.18857674306200489234e-002
  +9.99458919371816190136e-001-j3.28917692674560863120e-002
  +9.99424229159257326849e-001-j3.39294881582566029699e-002
  +9.99387315041481150146e-001-j3.49999218750719903737e-002
  +9.99348034473499180486e-001-j3.61040993634767701237e-002
  +9.99306235776861173647e-001-j3.72430816954669591246e-002
  +9.99261757554854801455e-001-j3.84179630494072832381e-002
  +9.99214428070324123254e-001-j3.96298717175869036344e-002
  +9.99164064583716315937e-001-j4.08799711419308153815e-002
  +9.99110472648822467434e-001-j4.21694609783996657293e-002
  +9.99053445363525804979e-001-j4.34995781905932882294e-002
  +9.98992762572681214372e-001-j4.48715981730507113001e-002
  +9.98928190020094697310e-001-j4.62868359047138716589e-002
  +9.98859478446353588055e-001-j4.77466471329906425036e-002
  +9.98786362629073054542e-001-j4.92524295888163016199e-002
  +9.98708560361897368374e-001-j5.08056242330699389664e-002
  +9.98625771368370607206e-001-j5.24077165346529538770e-002
  +9.98537676146547759082e-001-j5.40602377804799069660e-002
  +9.98443934739941085788e-001-j5.57647664175665996877e-002
  +9.98344185430157682326e-001-j5.75229294273265218118e-002
  +9.98238043346245440546e-001-j5.93364037321014586857e-002
  +9.98125098985504388693e-001-j6.12069176338578060936e-002
  +9.98004916640147454743e-001-j6.31362522848702700795e-002
  +9.97877032723882506637e-001-j6.51262431900944682717e-002
  +9.97740953992090950919e-001-j6.71787817407917958734e-002
  +9.97596155648912574776e-001-j6.92958167788174095314e-002
  +9.97442079334105002886e-001-j7.14793561908089597479e-002
  +9.97278130982138244498e-001-j7.37314685313219669860e-002
  +9.97103678545487315255e-001-j7.60542846737432276516e-002
  +9.96918049573629505566e-001-j7.84499994875731410104e-002
  +9.96720528638696423585e-001-j8.09208735404017415194e-002
  +9.96510354598218128785e-001-j8.34692348226064168015e-002
  +9.96286717684781164550e-001-j8.60974804924697079134e-002
  +9.96048756411836988534e-001-j8.88080786390489651527e-002
  +9.95795554284224393449e-001-j9.16035700597241653309e-002
  +9.95526136301310149435e-001-j9.44865700489002091622e-002
  +9.95239465239903364768e-001-j9.74597701938417493306e-002
  +9.94934437703360541327e-001-j1.00525940173066569150e-001
  +9.94609879922483730574e-001-j1.03687929552114768694e-001
  +9.94264543292975977451e-001-j1.06948669570836707443e-001
  +9.93897099633325398216e-001-j1.10311174915597609569e-001
  +9.93506136146062868164e-001-j1.13778545468975617050e-001
  +9.93090150064357746196e-001-j1.17353968028623717457e-001
  +9.92647542964884777028e-001-j1.21040717985965246006e-001
  +9.92176614726819394718e-001-j1.24842160954289460584e-001
  +9.91675557115716310719e-001-j1.28761754334603156780e-001
  +9.91142446969799362222e-001-j1.32803048806248519265e-001
  +9.90575238965034410299e-001-j1.36969689727835935988e-001
  +9.89971757934018925518e-001-j1.41265418432407724447e-001
  +9.89329690712433595934e-001-j1.45694073398975026956e-001
  +9.88646577485412403341e-001-j1.50259591280604204444e-001
  +9.87919802604766861265e-001-j1.54966007767075170110e-001
  +9.87146584846534946855e-001-j1.59817458257764943852e-001
  +9.86323967076815577570e-001-j1.64818178317809371780e-001
  +9.85448805292298946057e-001-j1.69972503887734910366e-001
  +9.84517757000334614581e-001-j1.75284871213618353991e-001
  +9.83527268901759121889e-001-j1.80759816461390054876e-001
  +9.82473563838097030398e-001-j1.86401974975115264366e-001
  +9.81352626963121088544e-001-j1.92216080134954669933e-001
  +9.80160191097112165615e-001-j1.98206961765954370325e-001
  +9.78891721220592869734e-001-j2.04379544043848365709e-001
  +9.77542398062710815587e-001-j2.10738842838602696839e-001
  +9.76107100737950372782e-001-j2.17289962430457395115e-001
  +9.74580388383440965328e-001-j2.24038091526694294053e-001
  +9.72956480747797725073e-001-j2.30988498500204059161e-001
  +9.71229237681266455162e-001-j2.38146525763103272810e-001
  +9.69392137475987847317e-001-j2.45517583180110465779e-001
  +9.67438254004401865238e-001-j2.53107140417033638080e-001
  +9.65360232603386325678e-001-j2.60920718109523830375e-001
  +9.63150264651579601782e-001-j2.68963877726104694244e-001
  +9.60800060787638576798e-001-j2.77242209987325904930e-001
  +9.58300822717979339238e-001-j2.85761321689629699261e-001
  +9.55643213563936333443e-001-j2.94526820768073793744e-001
  +9.52817326700348687929e-001-j3.03544299416300067396e-001
  +9.49812653040536081228e-001-j3.12819315065021585909e-001
  +9.46618046726457551543e-001-j3.22357369001650628793e-001
  +9.43221689187911938035e-001-j3.32163882393450182740e-001
  +9.39611051540944708371e-001-j3.42244169454593960555e-001
  +9.35772855303515060932e-001-j3.52603407473670693584e-001
  +9.31693031416094830099e-001-j3.63246603392301248281e-001
  +9.27356677566605225316e-001-j3.74178556597566325248e-001
  +9.22748013833134872463e-001-j3.85403817560661943187e-001
  +9.17850336674697953043e-001-j3.96926641921524103740e-001
  +9.12645971320219295819e-001-j4.08750939583922612286e-001
  +9.07116222629476998129e-001-j4.20880218347578494154e-001
  +9.01241324527380927023e-001-j4.33317521563070739976e-001
  +8.95000388145387848482e-001-j4.46065359251561932563e-001
  +8.88371348841607955116e-001-j4.59125632084529888832e-001
  +8.81330912315150705183e-001-j4.72499547568689115540e-001
  +8.73854500081222784758e-001-j4.86187527728024315721e-001
  +8.65916194632519564678e-001-j5.00189107518301590005e-001
  +8.57488684680542068151e-001-j5.14502823149581511863e-001
  +8.48543210948977777441e-001-j5.29126089429192592029e-001
  +8.39049513081516096236e-001-j5.44055065171432872262e-001
  +8.28975778330066304100e-001-j5.59284505651216679034e-001
  +8.18288592808077086538e-001-j5.74807601007247814806e-001
  +8.06952896229491734026e-001-j5.90615799426536525196e-001
  +7.94931941209115477953e-001-j6.06698613866873182054e-001
  +7.82187258377265881570e-001-j6.23043410997906610405e-001
  +7.68678628763424631742e-001-j6.39635180965953842325e-001
  +7.54364065133267924779e-001-j6.56456286513819153861e-001
  +7.39199804224586864976e-001-j6.73486189916481459150e-001
  +7.23140312123978223902e-001-j6.90701156128588289462e-001
  +7.06138305362331020198e-001-j7.08073930482913005413e-001
  +6.88144790687880147928e-001-j7.25573389233465149140e-001
  +6.69109126906263895762e-001-j7.43164161206673057336e-001
  +6.48979112663854329490e-001-j7.60806218813785739563e-001
  +6.27701104600008275014e-001-j7.78454436692972207013e-001
  +6.05220170913411847913e-001-j7.96058116297476137113e-001
  +5.81480286085395148277e-001-j8.13560474834769231656e-001
  +5.56424573287983892378e-001-j8.30898097100675969706e-001
  +5.29995601886573575179e-001-j8.48000348953518057193e-001
  +5.02135748437384954457e-001-j8.64788751450089709927e-001
  +4.72787630690671312195e-001-j8.81176315033706747393e-001
  +4.41894625355710113368e-001-j8.97066833643493266592e-001
  +4.09401481778531084466e-001-j9.12354139225276639102e-001
  +3.75255045246008889226e-001-j9.26921317893260043874e-001
  +3.39405105381538285680e-001-j9.40639889947276763849e-001
  +3.01805387063208196974e-001-j9.53368957126595306661e-001
  +2.62414703506991420223e-001-j9.64954321916598800613e-001
  +2.21198293655323036111e-001-j9.75227585463970259028e-001
  +1.78129368849461844349e-001-j9.84005232751175684669e-001
  +1.33190897015796672065e-001-j9.91087716193510992468e-001
  +8.63776563645946710013e-002-j9.96258551826504579196e-001
  +3.76985950313593956573e-002-j9.99283445842619855171e-001
  -1.28204616030307017721e-002-j9.99909473540393944901e-001
  -6.51337076911647772093e-002-j9.97864337944914470135e-001
  -1.19171801465990073732e-001-j9.92855741712476924654e-001
  -1.74837790855549873870e-001-j9.84570913860054908184e-001
  -2.32002439924521242087e-001-j9.72676343030279388913e-001
  -2.90498857905580332162e-001-j9.56817782509369441080e-001
  -3.50116308361659078763e-001-j9.36620610865572134074e-001
  -4.10593043198104634683e-001-j9.11690658855715541087e-001
  -4.71607961777793405211e-001-j8.81615653077088112788e-001
  -5.32770835654856389496e-001-j8.45967487769596182545e-001
  -5.93610760685040927953e-001-j8.04305631240219587319e-001
  -6.53562397903892922102e-001-j7.56182123457858290649e-001
  -7.11949444118689878103e-001-j7.01148859312390682064e-001
  -7.67964644529894657765e-001-j6.38768228473240551324e-001
  -8.20645557587110552333e-001-j5.68628773315845714720e-001
  -8.68845287940802624149e-001-j4.90368438550132623721e-001
  -9.11197687867277061891e-001-j4.03709360651033244416e-001
  -9.46077426691611877985e-001-j3.08510136308027593799e-001
  -9.71557461061959060089e-001-j2.04844209906186319747e-001
  -9.85370872237438133467e-001-j9.31162573580710806187e-002
  -9.84892426959660061137e-001+j2.57686958655955651587e-002
  -9.67169702780741324943e-001+j1.50168805875646266257e-001
  -9.29055784616920177221e-001+j2.77395954217430906752e-001
  -8.67523082195210348821e-001+j4.03356399935226428433e-001
  -7.80256947760151309268e-001+j5.22228323847166331362e-001
  -6.66601683157316049488e-001+j6.26370835615909449245e-001
  -5.28796508942916299034e-001+j7.06782741562999472507e-001
  -3.73143716521987689472e-001+j7.54454193807943096495e-001
  -2.10379496801112897408e-001+j7.62676101443617415754e-001
  -5.44247999222459283297e-002+j7.29684152967310040161e-001
  +8.06613382896589903304e-002+j6.60280974789242636191e-001
  +1.84430933059173407518e-001+j5.65156292895908296536e-001
  +2.52590911841216458900e-001+j4.57917531004994438071e-001
  +2.87101661840639399426e-001+j3.51367459325178876917e-001
  +2.94208592112247757644e-001+j2.54854631206894444162e-001
  +2.81818604227972946408e-001+j1.73472558521992281655e-001
  +2.57436982771336364539e-001+j1.08696267941625970832e-001
  +2.27090558963656347080e-001+j5.96042177262686920236e-002
  +1.95065102017671992973e-001+j2.40404889840881465235e-002
  +1.64099597625517040766e-001-j5.53121054186418432790e-004
  +1.35745862787002902206e-001-j1.66491337490828512913e-002
  +1.10728793432250324780e-001-j2.64025573344968192413e-002
  +8.92405106442226703223e-002-j3.15772803302825713634e-002
  +7.11558251985481143853e-002-j3.35566072464262843411e-002
  +5.61792699211966159445e-002-j3.33911451139200857186e-002
  +4.39400391139906920657e-002-j3.18579124962889634332e-002
  +3.40501267304291962978e-002-j2.95176833570278095153e-002
  +2.61377160000580699428e-002-j2.67650853491576551368e-002
  +1.98645494965914784502e-002-j2.38699043236742271257e-002
  +1.49332954432392570054e-002-j2.10099170144595129295e-002
  +1.10889210531509452978e-002-j1.82963347115849550573e-002
  +8.11667910059020447644e-003-j1.57931430061167034362e-002
  +5.83836099794245600575e-003-j1.35315666505641425676e-002
  +4.10783688556960388527e-003-j1.15207300759489345010e-002
</dep>
<dep S[2,2] frequency>
  -2.49673465665359740201e-010-j7.85434857650865042578e-007
  -2.65705613822144349340e-010-j8.10226273766610771698e-007
  -2.82768963748140401970e-010-j8.35800365057677921432e-007
  -3.00930069905213596476e-010-j8.62181856571379856558e-007
  -3.20259725884080095892e-010-j8.89396255968153554017e-007
  -3.40833501795889583924e-010-j9.17469878442380218364e-007
  -3.62731719261036398422e-010-j9.46429872416025205761e-007
  -3.86040051596377165044e-010-j9.76304246158620284146e-007
  -4.10849633658463397196e-010-j1.00712189517442735065e-006
  -4.37257902981139437437e-010-j1.03891263053220751778e-006
  -4.65368229615368243779e-010-j1.07170720814496814310e-006
  -4.95291072003943740054e-010-j1.10553735891338530961e-006
  -5.27144190413464733269e-010-j1.14043581998768926711e-006
  -5.61052677271666952463e-010-j1.17643636695112172030e-006
  -5.97150101583473688627e-010-j1.21357384712207291844e-006
  -6.35579306795374526784e-010-j1.25188421391158113960e-006
  -6.76491640822147501100e-010-j1.29140456239427124652e-006
  -7.20049345736867470180e-010-j1.33217316596739854262e-006
  -7.66425160925805933065e-010-j1.37422951430920051163e-006
  -8.15803333537750731408e-010-j1.41761435256022860774e-006
  -8.68380295785103201167e-010-j1.46236972188226732605e-006
  -9.24365893805725521992e-010-j1.50853900126018264372e-006
  -9.83984136358750927087e-010-j1.55616695086914155755e-006
  -1.04747372017474638106e-009-j1.60529975680792635906e-006
  -1.11509020552934441650e-009-j1.65598507742472506044e-006
  -1.18710600824725211189e-009-j1.70827209116774375586e-006
  -1.26381305513021194309e-009-j1.76221154609638303024e-006
  -1.34552222063265801422e-009-j1.81785581121257297510e-006
  -1.43256660237200440788e-009-j1.87525892941971250583e-006
  -1.52530238233753584476e-009-j1.93447667238850345983e-006
  -1.62411115095907956918e-009-j1.99556659742335454344e-006
  -1.72940077891397224474e-009-j2.05858810625519569881e-006
  -1.84160840716691628915e-009-j2.12360250596193081418e-006
  -1.96120292244748514743e-009-j2.19067307205902950251e-006
  -2.08868673620904790611e-009-j2.25986511388776012410e-006
  -2.22459935449994747336e-009-j2.33124604237956029040e-006
  -2.36951984850788596737e-009-j2.40488544025032127682e-006
  -2.52407086030748128991e-009-j2.48085513480109445816e-006
  -2.68892220653144803366e-009-j2.55922927348698273087e-006
  -2.86479524298907314850e-009-j2.64008440225681900726e-006
  -3.05246669498986100688e-009-j2.72349954683667044852e-006
  -3.25277544238914903540e-009-j2.80955629709421159101e-006
  -3.46662718485584581130e-009-j2.89833889472942973775e-006
  -3.69500171844110159025e-009-j2.98993432424829452820e-006
  -3.93896049197955955279e-009-j3.08443240751559571988e-006
  -4.19965454599713350348e-009-j3.18192590208470765800e-006
  -4.47833436133249218614e-009-j3.28251060333767386012e-006
  -4.77636096147572575266e-009-j3.38628545076304077188e-006
  -5.09521823745338192646e-009-j3.49335263840743620589e-006
  -5.43652706728493806398e-009-j3.60381773001263588929e-006
  -5.80206207590524408735e-009-j3.71778977853280678811e-006
  -6.19376990950055994478e-009-j3.83538145090796256387e-006
  -6.61379095565593766448e-009-j3.95670915767556280462e-006
  -7.06448455463359881179e-009-j4.08189318807337941930e-006
  -7.54845825862854313826e-009-j4.21105785071169275158e-006
  -8.06860073806342503744e-009-j4.34433162010278151044e-006
  -8.62812200353758884663e-009-j4.48184728907806417819e-006
  -9.23059844423583519823e-009-j4.62374212756994085183e-006
  -9.88002675549395914523e-009-j4.77015804781558139247e-006
  -1.05808864922767725814e-008-j4.92124177611623359052e-006
  -1.13382134583894789159e-008-j5.07714503119628679517e-006
  -1.21576867457943993411e-008-j5.23802470951250515041e-006
  -1.30457297195865629114e-008-j5.40404307711704612327e-006
  -1.40096311168711601391e-008-j5.57536796809421364429e-006
  -1.50576859668082735366e-008-j5.75217298935584014918e-006
  -1.61993635615018116702e-008-j5.93463773134426941791e-006
  -1.74455057969091775760e-008-j6.12294798348587965275e-006
  -1.88085619917330304496e-008-j6.31729595422861334164e-006
  -2.03028677420516445729e-008-j6.51788049326265661598e-006
  -2.19449756205455925873e-008-j6.72490731505603900331e-006
  -2.37540485389237110425e-008-j6.93858921990177235362e-006
  -2.57523265433622083886e-008-j7.15914631041654481169e-006
  -2.79656827031730947919e-008-j7.38680619816189931726e-006
  -3.04242849576835672210e-008-j7.62180419519066509881e-006
  -3.31633837041128698431e-008-j7.86438348318076185794e-006
  -3.62242503918266955942e-008-j8.11479525091030051698e-006
  -3.96552966670446482844e-008-j8.37329878824490114742e-006
  -4.35134083227178836140e-008-j8.64016152179666874211e-006
  -4.78655348169765293420e-008-j8.91565897359614112361e-006
  -5.27905890165131230773e-008-j9.20007461873914578199e-006
  -5.83817095197239344095e-008-j9.49369961267092221657e-006
  -6.47489614103921584665e-008-j9.79683235048656175792e-006
  -7.20225609004629396814e-008-j1.01097778115524783438e-005
  -8.03567196993107413228e-008-j1.04328466310737305589e-005
  -8.99342343999021132106e-008-j1.07663538252492085867e-005
  -1.00971961294708811874e-007-j1.11106170796928388489e-005
  -1.13727346499371828603e-007-j1.14659544863324192043e-005
  -1.28506214886262015717e-007-j1.18326815886412445300e-005
  -1.45672057314319425281e-007-j1.22111075580803168927e-005
  -1.65657100613392227473e-007-j1.26015302837727272145e-005
  -1.88975498010418574424e-007-j1.30042301030672963202e-005
  -2.16239039629168017242e-007-j1.34194618350638728010e-005
  -2.48175857038568370427e-007-j1.38474446987578436730e-005
  -2.85652676200454092026e-007-j1.42883495947432326290e-005
  -3.29701281064770368445e-007-j1.47422831068000359522e-005
  -3.81549958478749617896e-007-j1.52092674241023628756e-005
  -4.42660834326299990060e-007-j1.56892151952636726975e-005
  -5.14774169095219558123e-007-j1.61818980880142071488e-005
  -5.99960856157225053131e-007-j1.66869075412939826819e-005
  -7.00684577697660571083e-007-j1.72036058340326036831e-005
  -8.19875308795056656486e-007-j1.77310651552284315180e-005
  -9.61016127540986753175e-007-j1.82679918132658269947e-005
  -1.12824559187971185104e-006-j1.88126320511752820330e-005
  -1.32647827976589693932e-006-j1.93626551093090126798e-005
  -1.56154646190065360400e-006-j1.99150081566720760229e-005
  -1.84036627818434661563e-006-j2.04657364669715013950e-005
  -2.17113222190576382609e-006-j2.10097606755145493995e-005
  -2.56354418001411565875e-006-j2.15406010764356004028e-005
  -3.02907173167082932608e-006-j2.20500366051382123977e-005
  -3.58126083186902088862e-006-j2.25276833312436364221e-005
  -4.23608837980121721856e-006-j2.29604738297348176523e-005
  -5.01237043188176856212e-006-j2.33320145776108600622e-005
  -5.93222990669800553931e-006-j2.36217933788293588115e-005
  -7.02162943275533302234e-006-j2.38042025541458646121e-005
  -8.31097438612482530829e-006-j2.38473360128395317492e-005
  -9.83578996847922493174e-006-j2.37115090806865047579e-005
  -1.16374741307018192416e-005-j2.33474387701521068905e-005
  -1.37641249477737925844e-005-j2.26940086537567170533e-005
  -1.62714362473836970935e-005-j2.16755262106467505578e-005
  -1.92236483200144969707e-005-j2.01983609460082425002e-005
  -2.26945306564252380355e-005-j1.81468281328523578511e-005
  -2.67683598897464070099e-005-j1.53781550593212051892e-005
  -3.15408372020126170909e-005-j1.17163334184024192641e-005
  -3.71198637607109138692e-005-j6.94462217411696142166e-006
  -4.36260581985273288019e-005-j7.96419010128633642065e-007
  -5.11928540165296208642e-005+j7.05583553637593313690e-006
  -5.99659537064423098229e-005+j1.70141197642987828114e-005
  -7.01018359440808147554e-005+j2.95711287282532549192e-005
  -8.17649069359827063153e-005+j4.53299604411339443488e-005
  -9.51227499484674776653e-005+j6.50278337825885982548e-005
  -1.10338749524659107681e-004+j8.95645819103466078737e-005
  -1.27561138058285283847e-004+j1.20036772551703613265e-004
  -1.46907218788315530045e-004+j1.57778417844443852314e-004
  -1.68441144347351856592e-004+j2.04409345602708791834e-004
  -1.92143153436651059618e-004+j2.61892401743055169838e-004
  -2.17867565421039910412e-004+j3.32600726137596836018e-004
  -2.45286074018698230237e-004+j4.19396370672210638819e-004
  -2.73811931649652062770e-004+j5.25721479012912495943e-004
  -3.02499434177920523137e-004+j6.55703080181042896601e-004
  -3.29911654328170211858e-004+j8.14272203337643163401e-004
  -3.53947577674020019689e-004+j1.00729741720909093949e-003
  -3.71617609901946088780e-004+j1.24173192209182936541e-003
  -3.78753788159186255413e-004+j1.52577182280792811309e-003
  -3.69637885769512342105e-004+j1.86902098176536246577e-003
  -3.36526902683077777656e-004+j2.28265461738075270404e-003
  -2.69051162611982225270e-004+j2.77956920911516525141e-003
  -1.53455416472235428582e-004+j3.37449981422392741859e-003
  +2.83519166657357490902e-005+j4.08407696126672492554e-003
  +2.99981725081023380131e-004+j4.92678304001413491786e-003
  +6.92025019955041717501e-004+j5.92275149644962140005e-003
  +1.24384152331655922774e-003+j7.09332980986757122288e-003
  +2.00572808393568308150e-003+j8.46029746311610653109e-003
  +3.04151696263747078897e-003+j1.00445907817035828824e-002
  +4.43164482778093948845e-003+j1.18643350056043955787e-002
  +6.27671221333664375308e-003+j1.39319171811063541311e-002
  +8.70151303345831350633e-003+j1.62497479421412904799e-002
  +1.18594436119751761582e-002+j1.88042524349679579521e-002
  +1.59370840928679813331e-002+j2.15574976473185755954e-002
  +2.11585572764972085213e-002+j2.44357046727436272304e-002
  +2.77889739207767827445e-002+j2.73137150979598682110e-002
  +3.61358149275821660673e-002+j2.99942982039989938792e-002
  +4.65464012423300599330e-002+j3.21810425754714551916e-002
  +5.93985534999338926632e-002+j3.34435634925861272060e-002
  +7.50800074739824685466e-002+j3.31740595310224678505e-002
  +9.39499813823449908545e-002+j3.05352173405901011760e-002
  +1.16273407697201597299e-001+j2.44017250461916745952e-002
  +1.42114939071911500212e-001+j1.33022875566889686727e-002
  +1.71176855869521471476e-001-j4.62229872692568322101e-003
  +2.02565078294649508761e-001-j3.16146298472144704483e-002
  +2.34476528166980668910e-001-j7.01968047164458763820e-002
  +2.63830010850587215465e-001-j1.22886296487420887402e-001
  +2.85926808629929807282e-001-j1.91631243148121965802e-001
  +2.94335417002578536572e-001-j2.76890654590539131430e-001
  +2.81319119105224668687e-001-j3.76419927188151648423e-001
  +2.39150501418012806365e-001-j4.84117417510748604403e-001
  +1.62379418178716483645e-001-j5.89659695217855994720e-001
  +5.04336222221404631427e-002-j6.79746590878803402802e-001
  -9.08012940198393847524e-002-j7.41132854379705885428e-001
  -2.49699292472950279409e-001-j7.64351920825468433840e-001
  -4.11893175633872343777e-001-j7.46226090350475379509e-001
  -5.64017389254728107595e-001-j6.89926031480180057542e-001
  -6.96368140947168701160e-001-j6.02960888908651182483e-001
  -8.03705205255345833670e-001-j4.94513385861588994352e-001
  -8.84607479787705708318e-001-j3.73337552277822504188e-001
  -9.40235375505045212208e-001-j2.46646820185667137171e-001
  -9.73146620140123430609e-001-j1.19822020405662144071e-001
  -9.86437702223069035057e-001+j3.41697953078763400764e-003
  -9.83226993866962439839e-001+j1.20667085872472504282e-001
  -9.66393480570475804647e-001+j2.30490086515923758848e-001
  -9.38474840810633703647e-001+j3.32120429652192683534e-001
  -9.01652065719695916535e-001+j4.25246228712057250387e-001
  -8.57774688930402873233e-001+j5.09854394988856540749e-001
  -8.08400969488856757650e-001+j5.86124746878610936029e-001
  -7.54840177219455621405e-001+j6.54358924516337037147e-001
  -6.98191376143074360350e-001+j7.14933040422662147151e-001
  -6.39376849577626304999e-001+j7.68266146309379838186e-001
  -5.79170067373768415742e-001+j8.14799124405834573892e-001
  -5.18218802758955376930e-001+j8.54980439795597346730e-001
  -4.57064200614323012939e-001+j8.89256438082489331087e-001
  -3.96156567475065446438e-001+j9.18064695046712175852e-001
  -3.35868540023691264373e-001+j9.41829454984813962959e-001
</dep>
